<?xml version="1.0" encoding="UTF-8" standalone="no"?>
<!-- Created with Inkscape (http://www.inkscape.org/) -->

<svg
   width="12617.706"
   height="12617.706"
   viewBox="0 0 3338.4345 3338.4345"
   version="1.1"
   id="svg1291"
   inkscape:export-filename="icon2.png"
   inkscape:export-xdpi="8.6400003"
   inkscape:export-ydpi="8.6400003"
   inkscape:version="1.2.2 (b0a8486541, 2022-12-01)"
   sodipodi:docname="icon2.svg"
   xmlns:inkscape="http://www.inkscape.org/namespaces/inkscape"
   xmlns:sodipodi="http://sodipodi.sourceforge.net/DTD/sodipodi-0.dtd"
   xmlns="http://www.w3.org/2000/svg"
   xmlns:svg="http://www.w3.org/2000/svg">
  <sodipodi:namedview
     id="namedview1293"
     pagecolor="#ffffff"
     bordercolor="#000000"
     borderopacity="0.25"
     inkscape:showpageshadow="2"
     inkscape:pageopacity="0.0"
     inkscape:pagecheckerboard="0"
     inkscape:deskcolor="#d1d1d1"
     inkscape:document-units="px"
     showgrid="false"
     inkscape:zoom="0.057418097"
     inkscape:cx="5747.3169"
     inkscape:cy="6174.0117"
     inkscape:window-width="1920"
     inkscape:window-height="1033"
     inkscape:window-x="0"
     inkscape:window-y="0"
     inkscape:window-maximized="1"
     inkscape:current-layer="layer1"
     showguides="false" />
  <defs
     id="defs1288" />
  <g
     inkscape:label="Layer 1"
     inkscape:groupmode="layer"
     id="layer1"
     style="display:inline">
    <path
       id="path2158"
       style="display:inline;fill:#124754;fill-opacity:1;stroke:none;stroke-width:104.81;stroke-linecap:round;stroke-linejoin:bevel;stop-color:#000000"
       inkscape:label="blue star"
       d="M 2043.9686 0 L 1294.4434 1031.6336 L 81.685964 637.5843 L 831.21122 1669.2174 L 81.685964 2700.8499 L 1294.4434 2306.8012 L 2043.9686 3338.4348 L 2043.9686 0 z " />
    <path
       id="path2170"
       style="display:inline;fill:#d0932c;fill-opacity:1;stroke:none;stroke-width:139.102;stroke-linecap:round;stroke-linejoin:miter;stroke-dasharray:none;stroke-opacity:1;stop-color:#000000"
       inkscape:label="yellow accent"
       inkscape:transform-center-x="-576.70345"
       inkscape:transform-center-y="374.75779"
       d="m 1294.4434,1031.6333 -463.23168,637.584 463.23168,637.584 749.5253,-243.5356 v -788.0973 z m 749.5253,243.5351 0.044,788.0973 1212.7354,-394.1174 z" />
    <g
       inkscape:groupmode="layer"
       id="layer2"
       inkscape:label="inlay"
       transform="matrix(1.0514756,0,0,1.0514756,-253.53425,-85.923943)">
      <path
         id="path2180"
         style="display:inline;fill:#4a0d09;fill-opacity:1;stroke:none;stroke-width:26.4583;stroke-linecap:butt;stroke-linejoin:miter;stroke-dasharray:none;stroke-opacity:0.490027;stop-color:#000000"
         sodipodi:type="inkscape:offset"
         inkscape:radius="-103.65405"
         inkscape:original="M 291.22852 748.1875 L 866.13672 1539.4785 L 1380.3574 1539.4785 L 1221.4629 1050.4668 L 291.22852 748.1875 z "
         d="m 562.60742,945.36133 356.34375,490.46287 h 318.73833 l -98.4864,-303.0976 z"
         inkscape:transform-center-x="-0.12941416"
         inkscape:transform-center-y="151.63115"
         transform="matrix(0.3086848,-0.95116437,-0.95116437,-0.3086848,2732.5231,3535.1196)"
         inkscape:label="bottom right" />
      <path
         id="path2182"
         style="display:inline;fill:#000000;fill-opacity:1;stroke:none;stroke-width:26.4583;stroke-linecap:butt;stroke-linejoin:miter;stroke-dasharray:none;stroke-opacity:0.490027;stop-color:#000000"
         sodipodi:type="inkscape:offset"
         inkscape:radius="-103.65405"
         inkscape:original="M 291.22852 748.1875 L 866.13672 1539.4785 L 1380.3574 1539.4785 L 1221.4629 1050.4668 L 291.22852 748.1875 z "
         d="m 562.60742,945.36133 356.34375,490.46287 h 318.73833 l -98.4864,-303.0976 z"
         inkscape:transform-center-x="-159.45181"
         inkscape:transform-center-y="-0.010684459"
         transform="rotate(143.97043,1544.502,1664.7147)"
         inkscape:label="far right" />
      <path
         id="path2184"
         style="display:inline;fill:#4a0d09;fill-opacity:1;stroke:none;stroke-width:26.4583;stroke-linecap:butt;stroke-linejoin:miter;stroke-dasharray:none;stroke-opacity:0.490027;stop-color:#000000"
         sodipodi:type="inkscape:offset"
         inkscape:radius="-103.65405"
         inkscape:original="M 291.22852 748.1875 L 866.13672 1539.4785 L 1380.3574 1539.4785 L 1221.4629 1050.4668 L 291.22852 748.1875 z "
         d="m 562.60742,945.36133 356.34375,490.46287 h 318.73833 l -98.4864,-303.0976 z"
         inkscape:transform-center-x="-0.12936719"
         inkscape:transform-center-y="-151.63111"
         transform="rotate(72.020012,1501.5688,1781.4646)"
         inkscape:label="top right" />
      <path
         id="path2186"
         style="display:inline;fill:#4a0d09;fill-opacity:1;stroke:none;stroke-width:26.4583;stroke-linecap:butt;stroke-linejoin:miter;stroke-dasharray:none;stroke-opacity:0.490027;stop-color:#000000"
         sodipodi:type="inkscape:offset"
         inkscape:radius="-103.65516"
         inkscape:original="M 866.13672 1635.5195 L 291.22852 2426.8105 L 1221.4629 2124.5312 L 1380.3555 1635.5195 L 866.13672 1635.5195 z "
         d="m 918.95312,1739.1738 -356.33984,490.459 576.58792,-187.3613 98.4843,-303.0977 z"
         inkscape:transform-center-x="128.99966"
         inkscape:transform-center-y="93.71795"
         inkscape:label="bottom left"
         transform="translate(222.76953,81.717406)" />
      <path
         id="path2188"
         style="display:inline;fill:#4a0d09;fill-opacity:1;stroke:none;stroke-width:26.4583;stroke-linecap:butt;stroke-linejoin:miter;stroke-dasharray:none;stroke-opacity:0.490027;stop-color:#000000"
         sodipodi:type="inkscape:offset"
         inkscape:radius="-103.65405"
         inkscape:original="M 291.22852 748.1875 L 866.13672 1539.4785 L 1380.3574 1539.4785 L 1221.4629 1050.4668 L 291.22852 748.1875 z "
         d="m 562.60742,945.36133 356.34375,490.46287 h 318.73833 l -98.4864,-303.0976 z"
         inkscape:transform-center-x="129.00054"
         inkscape:transform-center-y="-93.721658"
         inkscape:label="top left"
         transform="translate(222.76953,81.717406)" />
    </g>
  </g>
</svg>
